<svg width="110" height="110" viewBox="0 0 156 156" fill="none" xmlns="http://www.w3.org/2000/svg">
<path d="M36.3335 53.0831L36.4168 52.9915" stroke="#168CF5" stroke-opacity="5" stroke-width="5" stroke-linecap="round" stroke-linejoin="round"/>
<path d="M69.666 53.0831L69.7494 52.9915" stroke="#168CF5" stroke-opacity="5" stroke-width="5" stroke-linecap="round" stroke-linejoin="round"/>
<path d="M36.3335 86.4169L36.4168 86.3252" stroke="#168CF5" stroke-opacity="5" stroke-width="5" stroke-linecap="round" stroke-linejoin="round"/>
<path d="M69.666 86.4169L69.7494 86.3252" stroke="#168CF5" stroke-opacity="5" stroke-width="5" stroke-linecap="round" stroke-linejoin="round"/>
<path d="M36.3335 119.749L36.4168 119.658" stroke="#168CF5" stroke-opacity="5" stroke-width="5" stroke-linecap="round" stroke-linejoin="round"/>
<path d="M69.666 119.749L69.7494 119.658" stroke="#168CF5" stroke-opacity="5" stroke-width="5" stroke-linecap="round" stroke-linejoin="round"/>
<path d="M103 119.667H119.667M103 153H8C6.67392 153 5.40215 152.473 4.46447 151.536C3.52678 150.598 3 149.326 3 148V24.6667C3 23.3406 3.52678 22.0688 4.46447 21.1311C5.40215 20.1935 6.67392 19.6667 8 19.6667H53V8C53 6.67392 53.5268 5.40215 54.4645 4.46447C55.4021 3.52678 56.6739 3 58 3H98C99.3261 3 100.598 3.52678 101.536 4.46447C102.473 5.40215 103 6.67392 103 8V53V153ZM103 153H148C149.326 153 150.598 152.473 151.536 151.536C152.473 150.598 153 149.326 153 148V58C153 56.6739 152.473 55.4021 151.536 54.4645C150.598 53.5268 149.326 53 148 53H103V153ZM103 153V119.667V153ZM103 53V86.3333V53ZM103 86.3333H119.667H103ZM103 86.3333V119.667V86.3333Z" stroke="#168CF5" stroke-opacity="5" stroke-width="5" stroke-linecap="round" stroke-linejoin="round"/>
</svg>
